
== TIME ===========================
start time :: 2016_06_05-21_18_47
end time :: 2016_06_05-21_56_31

== CONFIG ===========================
Experiment Config File : experiment_config.csv

GDM Config File : gdm_parameter_config.csv

Input Data Path : data
Result Folder Path : result_optimization_without_time_norm


== FLAGS ===========================
Normalize Data : 1
Save Visualization : 0

== EXPERIMENT ===========================
GDM Type : 2DTD

Experiment:simulation_2d - with_obstacle_up_16x4
Data File:with_obstacle_up_16x4

map center =  (8.000 x 2.000) m^2
map size   =  (16.000 x 4.500) m^2
source location = [1.00, 2.00, 0.00]) m
gas type : ethanol

== DATA PARTITION ===========================
parse test set selection: contPartTestSetSelection - [5 5 5 0]
parse tv set selection:   contTvSetSelectionFixed - [4 4]

training data index : [1:18708]
validation data index : [18709:24944]
test data index : [24945:31180]


== Intervals : GDM META-PARAMETERS =====================
sigma: [0.10, 0.40], step : 0.05)
c    : [0.05, 0.30], step : 0.05)
beta : [0.00, 0.50], step : 0.02)

== Optimized GDM META-PARAMETERS =====================
Target Time: 20 --> (c = 0.10, sigma = 0.20, beta = 0.00000)

== END =====================================

